<?xml version="1.0" encoding="UTF-8" standalone="no"?>
<graphml xmlns="http://graphml.graphdrawing.org/xmlns" xmlns:xsi="http://www.w3.org/2001/XMLSchema-instance" xmlns:y="http://www.yworks.com/xml/graphml" xmlns:yed="http://www.yworks.com/xml/yed/3" xsi:schemaLocation="http://graphml.graphdrawing.org/xmlns http://www.yworks.com/xml/schema/graphml/1.1/ygraphml.xsd">
  <!--Created by yFiles for Java 2.9-->
  <key for="graphml" id="d0" yfiles.type="resources"/>
  <key for="port" id="d1" yfiles.type="portgraphics"/>
  <key for="port" id="d2" yfiles.type="portgeometry"/>
  <key for="port" id="d3" yfiles.type="portuserdata"/>
  <key attr.name="url" attr.type="string" for="node" id="d4"/>
  <key attr.name="description" attr.type="string" for="node" id="d5"/>
  <key for="node" id="d6" yfiles.type="nodegraphics"/>
  <key attr.name="Description" attr.type="string" for="graph" id="d7"/>
  <key attr.name="url" attr.type="string" for="edge" id="d8"/>
  <key attr.name="description" attr.type="string" for="edge" id="d9"/>
  <key for="edge" id="d10" yfiles.type="edgegraphics"/>
  <graph edgedefault="directed" id="G">
    <data key="d7"/>
    <node id="n0" yfiles.foldertype="group">
      <data key="d4"/>
      <data key="d6">
        <y:ProxyAutoBoundsNode>
          <y:Realizers active="0">
            <y:GroupNode>
              <y:Geometry height="517.15625" width="937.0" x="-513.5" y="-333.15625"/>
              <y:Fill color="#EEEEEE" transparent="false"/>
              <y:BorderStyle color="#BED4EB" type="line" width="1.0"/>
              <y:NodeLabel alignment="center" autoSizePolicy="node_width" backgroundColor="#BED4EB" borderDistance="0.0" fontFamily="Liberation Mono" fontSize="20" fontStyle="plain" hasLineColor="false" height="26.65625" modelName="internal" modelPosition="t" textColor="#000000" visible="true" width="937.0" x="0.0" y="0.0">Engine Architecture</y:NodeLabel>
              <y:Shape type="roundrectangle"/>
              <y:State closed="false" closedHeight="50.0" closedWidth="50.0" innerGraphDisplayEnabled="false"/>
              <y:Insets bottom="5" bottomF="5.0" left="5" leftF="5.0" right="5" rightF="5.0" top="5" topF="5.0"/>
              <y:BorderInsets bottom="41" bottomF="41.25" left="0" leftF="0.0" right="0" rightF="0.0" top="46" topF="46.25"/>
            </y:GroupNode>
            <y:GroupNode>
              <y:Geometry height="571.9999999999998" width="993.9999999999997" x="-513.5" y="-327.95361328125"/>
              <y:Fill color="#EEEEEE" transparent="false"/>
              <y:BorderStyle color="#BED4EB" type="line" width="1.0"/>
              <y:NodeLabel alignment="center" autoSizePolicy="node_width" backgroundColor="#BED4EB" borderDistance="0.0" fontFamily="Liberation Mono" fontSize="20" fontStyle="plain" hasLineColor="false" height="26.65625" modelName="internal" modelPosition="t" textColor="#000000" visible="true" width="993.9999999999997" x="0.0" y="0.0">Engine Architecture</y:NodeLabel>
              <y:Shape type="roundrectangle"/>
              <y:State closed="true" closedHeight="571.9999999999998" closedWidth="993.9999999999997" innerGraphDisplayEnabled="false"/>
              <y:Insets bottom="5" bottomF="5.0" left="5" leftF="5.0" right="5" rightF="5.0" top="5" topF="5.0"/>
              <y:BorderInsets bottom="0" bottomF="0.0" left="0" leftF="0.0" right="0" rightF="0.0" top="0" topF="0.0"/>
            </y:GroupNode>
          </y:Realizers>
        </y:ProxyAutoBoundsNode>
      </data>
      <graph edgedefault="directed" id="n0:">
        <node id="n0::n0">
          <data key="d6">
            <y:GenericNode configuration="ShinyPlateNode2">
              <y:Geometry height="123.0" width="237.0" x="-178.5" y="14.75"/>
              <y:Fill color="#BED4EB" transparent="false"/>
              <y:BorderStyle hasColor="false" type="line" width="2.0"/>
              <y:NodeLabel alignment="center" autoSizePolicy="content" fontFamily="Liberation Mono" fontSize="30" fontStyle="plain" hasBackgroundColor="false" hasLineColor="false" height="37.984375" modelName="internal" modelPosition="c" textColor="#000000" visible="true" width="220.03515625" x="8.482421875" y="42.5078125">Dependencies</y:NodeLabel>
              <y:StyleProperties>
                <y:Property class="java.lang.Boolean" name="ModernNodeShadow" value="true"/>
              </y:StyleProperties>
            </y:GenericNode>
          </data>
        </node>
        <node id="n0::n1">
          <data key="d6">
            <y:GenericNode configuration="ShinyPlateNode2">
              <y:Geometry height="123.0" width="237.0" x="-508.5" y="-255.25"/>
              <y:Fill color="#BED4EB" transparent="false"/>
              <y:BorderStyle hasColor="false" type="line" width="2.0"/>
              <y:NodeLabel alignment="center" autoSizePolicy="content" fontFamily="Liberation Mono" fontSize="30" fontStyle="plain" hasBackgroundColor="false" hasLineColor="false" height="37.984375" modelName="internal" modelPosition="c" textColor="#000000" visible="true" width="148.0234375" x="44.48828125" y="42.5078125">Executor</y:NodeLabel>
              <y:StyleProperties>
                <y:Property class="java.lang.Boolean" name="ModernNodeShadow" value="true"/>
              </y:StyleProperties>
            </y:GenericNode>
          </data>
        </node>
        <node id="n0::n2">
          <data key="d6">
            <y:GenericNode configuration="ShinyPlateNode2">
              <y:Geometry height="123.0" width="237.0" x="181.5" y="-255.25"/>
              <y:Fill color="#BED4EB" transparent="false"/>
              <y:BorderStyle hasColor="false" type="line" width="2.0"/>
              <y:NodeLabel alignment="center" autoSizePolicy="content" fontFamily="Liberation Mono" fontSize="30" fontStyle="plain" hasBackgroundColor="false" hasLineColor="false" height="37.984375" modelName="internal" modelPosition="c" textColor="#000000" visible="true" width="76.01171875" x="80.494140625" y="42.5078125">Mode</y:NodeLabel>
              <y:StyleProperties>
                <y:Property class="java.lang.Boolean" name="ModernNodeShadow" value="true"/>
              </y:StyleProperties>
            </y:GenericNode>
          </data>
        </node>
        <node id="n0::n3">
          <data key="d6">
            <y:GenericNode configuration="ShinyPlateNode2">
              <y:Geometry height="123.0" width="237.0" x="-178.5" y="-255.25"/>
              <y:Fill color="#BED4EB" transparent="false"/>
              <y:BorderStyle hasColor="false" type="line" width="2.0"/>
              <y:NodeLabel alignment="center" autoSizePolicy="content" fontFamily="Liberation Mono" fontSize="30" fontStyle="plain" hasBackgroundColor="false" hasLineColor="false" height="37.984375" modelName="internal" modelPosition="c" textColor="#000000" visible="true" width="148.0234375" x="44.48828125" y="42.5078125">Software</y:NodeLabel>
              <y:StyleProperties>
                <y:Property class="java.lang.Boolean" name="ModernNodeShadow" value="true"/>
              </y:StyleProperties>
            </y:GenericNode>
          </data>
        </node>
        <node id="n0::n4">
          <data key="d6">
            <y:GenericNode configuration="ShinyPlateNode2">
              <y:Geometry height="123.0" width="237.0" x="181.5" y="14.75"/>
              <y:Fill color="#BED4EB" transparent="false"/>
              <y:BorderStyle hasColor="false" type="line" width="2.0"/>
              <y:NodeLabel alignment="center" autoSizePolicy="content" fontFamily="Liberation Mono" fontSize="30" fontStyle="plain" hasBackgroundColor="false" hasLineColor="false" height="37.984375" modelName="internal" modelPosition="c" textColor="#000000" visible="true" width="94.0146484375" x="71.49267578125" y="42.5078125">Tasks</y:NodeLabel>
              <y:StyleProperties>
                <y:Property class="java.lang.Boolean" name="ModernNodeShadow" value="true"/>
              </y:StyleProperties>
            </y:GenericNode>
          </data>
        </node>
      </graph>
    </node>
    <edge id="n0::e0" source="n0::n1" target="n0::n0">
      <data key="d10">
        <y:PolyLineEdge>
          <y:Path sx="0.0" sy="60.0" tx="0.0" ty="0.0">
            <y:Point x="-390.0" y="76.25"/>
          </y:Path>
          <y:LineStyle color="#000000" type="line" width="3.0"/>
          <y:Arrows source="none" target="standard"/>
          <y:EdgeLabel alignment="center" distance="2.0" fontFamily="Liberation Mono" fontSize="20" fontStyle="plain" hasBackgroundColor="false" hasLineColor="false" height="26.65625" modelName="six_pos" modelPosition="head" preferredPlacement="anywhere" ratio="0.5" textColor="#000000" visible="true" width="100.015625" x="51.1796875" y="179.831298828125">Provides</y:EdgeLabel>
          <y:BendStyle smoothed="false"/>
        </y:PolyLineEdge>
      </data>
    </edge>
    <edge id="n0::e1" source="n0::n1" target="n0::n3">
      <data key="d10">
        <y:PolyLineEdge>
          <y:Path sx="0.0" sy="0.0" tx="0.0" ty="0.0"/>
          <y:LineStyle color="#000000" type="line" width="3.0"/>
          <y:Arrows source="none" target="standard"/>
          <y:EdgeLabel alignment="center" distance="2.0" fontFamily="Liberation Mono" fontSize="20" fontStyle="plain" hasBackgroundColor="false" hasLineColor="false" height="26.65625" modelName="custom" preferredPlacement="anywhere" ratio="0.5" textColor="#000000" visible="true" width="16.001953125" x="5.027099609375" y="-28.65625">*<y:LabelModel>
              <y:SmartEdgeLabelModel autoRotationEnabled="false" defaultAngle="0.0" defaultDistance="10.0"/>
            </y:LabelModel>
            <y:ModelParameter>
              <y:SmartEdgeLabelModelParameter angle="6.283185307179586" distance="2.0" distanceToCenter="false" position="left" ratio="0.0" segment="0"/>
            </y:ModelParameter>
          </y:EdgeLabel>
          <y:BendStyle smoothed="false"/>
        </y:PolyLineEdge>
      </data>
    </edge>
    <edge id="n0::e2" source="n0::n2" target="n0::n4">
      <data key="d10">
        <y:PolyLineEdge>
          <y:Path sx="0.0" sy="0.0" tx="-2.0" ty="-60.0"/>
          <y:LineStyle color="#000000" type="line" width="3.0"/>
          <y:Arrows source="none" target="standard"/>
          <y:EdgeLabel alignment="center" distance="2.0" fontFamily="Liberation Mono" fontSize="20" fontStyle="plain" hasBackgroundColor="false" hasLineColor="false" height="26.65625" modelName="custom" preferredPlacement="anywhere" ratio="0.5" textColor="#000000" visible="true" width="52.0078125" x="-56.20087506077647" y="63.74836910858426">Uses<y:LabelModel>
              <y:SmartEdgeLabelModel autoRotationEnabled="false" defaultAngle="0.0" defaultDistance="10.0"/>
            </y:LabelModel>
            <y:ModelParameter>
              <y:SmartEdgeLabelModelParameter angle="6.283185307179586" distance="3.3319150844800305" distanceToCenter="false" position="right" ratio="0.5323923814711686" segment="0"/>
            </y:ModelParameter>
          </y:EdgeLabel>
          <y:BendStyle smoothed="false"/>
        </y:PolyLineEdge>
      </data>
    </edge>
    <edge id="n0::e3" source="n0::n3" target="n0::n2">
      <data key="d10">
        <y:PolyLineEdge>
          <y:Path sx="0.0" sy="0.0" tx="0.0" ty="0.0"/>
          <y:LineStyle color="#000000" type="line" width="3.0"/>
          <y:Arrows source="none" target="standard"/>
          <y:EdgeLabel alignment="center" distance="2.0" fontFamily="Liberation Mono" fontSize="20" fontStyle="plain" hasBackgroundColor="false" hasLineColor="false" height="26.65625" modelName="six_pos" modelPosition="shead" preferredPlacement="anywhere" ratio="0.5" textColor="#000000" visible="true" width="16.001953125" x="10.1044921875" y="-28.65625">1</y:EdgeLabel>
          <y:BendStyle smoothed="false"/>
        </y:PolyLineEdge>
      </data>
    </edge>
    <edge id="n0::e4" source="n0::n3" target="n0::n0">
      <data key="d10">
        <y:PolyLineEdge>
          <y:Path sx="0.0" sy="0.0" tx="0.0" ty="0.0"/>
          <y:LineStyle color="#000000" type="line" width="3.0"/>
          <y:Arrows source="none" target="standard"/>
          <y:EdgeLabel alignment="center" distance="2.0" fontFamily="Liberation Mono" fontSize="20" fontStyle="plain" hasBackgroundColor="false" hasLineColor="false" height="26.65625" modelName="six_pos" modelPosition="head" preferredPlacement="anywhere" ratio="0.5" textColor="#000000" visible="true" width="88.013671875" x="-90.013671875" y="60.203369140625">Defines</y:EdgeLabel>
          <y:BendStyle smoothed="false"/>
        </y:PolyLineEdge>
      </data>
    </edge>
    <edge id="n0::e5" source="n0::n4" target="n0::n0">
      <data key="d10">
        <y:PolyLineEdge>
          <y:Path sx="0.0" sy="0.0" tx="0.0" ty="0.0"/>
          <y:LineStyle color="#000000" type="dashed" width="3.0"/>
          <y:Arrows source="none" target="standard"/>
          <y:EdgeLabel alignment="center" distance="2.0" fontFamily="Liberation Mono" fontSize="20" fontStyle="plain" hasBackgroundColor="false" hasLineColor="false" height="26.65625" modelName="six_pos" modelPosition="head" preferredPlacement="anywhere" ratio="0.5" textColor="#000000" visible="true" width="40.005859375" x="-81.482421875" y="-28.65625">Use</y:EdgeLabel>
          <y:BendStyle smoothed="false"/>
        </y:PolyLineEdge>
      </data>
    </edge>
  </graph>
  <data key="d0">
    <y:Resources/>
  </data>
</graphml>
